{
	"id": "a4cc441c-8e62-46d5-8250-d676f1b5a2ae",
	"name": "Local",
	"values": [
		{
			"key": "url",
			"value": "localhost:8080",
			"type": "default",
			"enabled": true
		},
		{
			"key": "token",
			"value": "",
			"type": "default",
			"enabled": true
		}
	],
	"_postman_variable_scope": "environment",
	"_postman_exported_at": "2023-11-23T20:15:58.949Z",
	"_postman_exported_using": "Postman/10.20.3"
}